﻿# Anbennar - removed china stuff

ban_liquor = {
	is_shown = {
		has_variable = prohibition_laws_var
		exists = market
		market.owner = root
		NOT = { is_banning_goods = g:liquor }
	}

	possible = {
		NOT = { has_law = law_type:law_free_trade }
		exists = market
	}

	when_taken = {
		add_banned_goods = g:liquor
		add_modifier = {
			name = liqour_ban_authority
		}
	}
	
    ai_chance = {
		base = 0
		modifier = {
			trigger = {
				OR = {
					has_strategy = ai_strategy_conservative_agenda
					has_strategy = ai_strategy_reactionary_agenda
					#has_strategy = ai_strategy_maintain_mandate_of_heaven
				}
			}
			add = 10
		}
    }	
}

remove_liquor_ban = {
	is_shown = {
		is_banning_goods = g:liquor
		exists = market
		market.owner = root
	}

	possible = {
		always = yes
	}

	when_taken = {
		remove_banned_goods = g:liquor
		remove_modifier = liqour_ban_authority
	}
	
   ai_chance = {
      base = 0
		modifier = {
			trigger = {
				has_strategy = ai_strategy_progressive_agenda
			}
			add = 10
		}		 
   }	
}

remove_opium_ban = {
	is_shown = {
		exists = market
		market.owner = root
		NOT = { has_journal_entry = je_opium_obsession }
		is_banning_goods = g:opium
	}

	possible = {
		is_banning_goods = g:opium
	}

	when_taken = {
		remove_banned_goods = g:opium
		if = {
			limit = { has_modifier = opium_ban_authority }
			remove_modifier = opium_ban_authority
		}
		#if = {
		#	limit = { has_modifier = china_welfare  }
		#	remove_modifier = china_welfare 
		#}		
	}
	
   ai_chance = {
      base = 0		 
   }	
}


