﻿BUILDINGS={



	#################
	####Kheterata####
	#################

	s:STATE_COAST_OF_TEARS={
		region_state:L01={
			create_building={
				building="building_wheat_farm"
				add_ownership={
					building={
						type="building_manor_house"
						country="c:L01"
						levels=13
						region="STATE_COAST_OF_TEARS"
					}
				}
				activate_production_methods={ "pm_herb_gardens" }
			}
			create_building={
				building="building_opium_plantation"
				add_ownership={
					building={
						type="building_manor_house"
						country="c:L01"
						levels=6
						region="STATE_COAST_OF_TEARS"
					}
				}
			}
			create_building = {
				building = "building_gem_mine"
				add_ownership={
					building={
						type="building_financial_district"
						country="c:L01"
						levels=4
						region="STATE_COAST_OF_TEARS"
					}
				}
			}
			create_building={
				building="building_shipyards"
				add_ownership={
					building={
						type="building_shipyards"
						country="c:L01"
						levels=1
						region="STATE_COAST_OF_TEARS"
					}
				}
			}
			create_building={
				building="building_military_shipyards"
				add_ownership={
					building={
						type="building_military_shipyards"
						country="c:L01"
						levels=1
						region="STATE_COAST_OF_TEARS"
					}
				}
			}
			create_building={
				building="building_paper_mills"
				add_ownership={
					building={
						type="building_financial_district"
						country="c:L01"
						levels=3
						region="STATE_COAST_OF_TEARS"
					}
					building={
						type="building_paper_mills"
						country="c:L01"
						levels=3
						region="STATE_COAST_OF_TEARS"
					}
				}
			}
			create_building={
				building="building_fishing_wharf"
				add_ownership={
					building={
						type="building_fishing_wharf"
						country="c:L01"
						levels=5
						region="STATE_COAST_OF_TEARS"
					}
				}
				activate_production_methods={ "pm_fishing_trawlers" }
			}
			create_building={
				building="building_port"
				add_ownership={
					country={
						country="c:L01"
						levels=3
					}
				}
				activate_production_methods={ "pm_basic_port" }
			}
			create_building={
				building="building_government_administration"
				add_ownership={
					country={
						country="c:L01"
						levels=7
					}
				}
				activate_production_methods={ "pm_horizontal_drawer_cabinets" }
			}
			create_building={
				building="building_university"
				add_ownership={
					country={
						country="c:L01"
						levels=2
					}
				}
			}
		}
	}

	s:STATE_MOTHERS_DELTA={
		region_state:L01={
			create_building={
				building="building_wheat_farm"
				add_ownership={
					building={
						type="building_manor_house"
						country="c:L01"
						levels=21
						region="STATE_MOTHERS_DELTA"
					}
				}
				activate_production_methods={ "pm_no_secondary" }
			}
			create_building={
				building="building_livestock_ranch"
				add_ownership={
					building={
						type="building_manor_house"
						country="c:L01"
						levels=6
						region="STATE_MOTHERS_DELTA"
					}
				}
			}
			create_building={
				building="building_sugar_plantation"
				add_ownership={
					building={
						type="building_manor_house"
						country="c:L01"
						levels=2
						region="STATE_MOTHERS_DELTA"
					}
				}
			}
			create_building={
				building="building_logging_camp"
				add_ownership={
					building={
						type="building_logging_camp"
						country="c:L01"
						levels=3
						region="STATE_MOTHERS_DELTA"
					}
				}
				activate_production_methods={ "pm_saw_mills" "pm_hardwood" }
			}
			create_building={
				building="building_arms_industry"
				add_ownership={
					building={
						type="building_arms_industry"
						country="c:L01"
						levels=3
						region="STATE_MOTHERS_DELTA"
					}
				}
			}
			create_building={
				building="building_government_administration"
				add_ownership={
					country={
						country="c:L01"
						levels=4
					}
				}
				activate_production_methods={ "pm_simple_organization" }
			}
		}
	}

	s:STATE_LOWER_SORROW={
		region_state:L01={
			create_building={
				building="building_wheat_farm"
				add_ownership={
					building={
						type="building_manor_house"
						country="c:L01"
						levels=14
						region="STATE_LOWER_SORROW"
					}
				}
				activate_production_methods={ "pm_no_secondary" }
			}
			create_building={
				building="building_livestock_ranch"
				add_ownership={
					building={
						type="building_manor_house"
						country="c:L01"
						levels=3
						region="STATE_LOWER_SORROW"
					}
				}
			}
			create_building={
				building="building_cotton_plantation"
				add_ownership={
					building={
						type="building_manor_house"
						country="c:L01"
						levels=2
						region="STATE_LOWER_SORROW"
					}
				}
			}
			create_building={
				building="building_logging_camp"
				add_ownership={
					building={
						type="building_logging_camp"
						country="c:L01"
						levels=3
						region="STATE_LOWER_SORROW"
					}
				}
				activate_production_methods={ "pm_saw_mills" }
			}
			create_building={
				building="building_textile_mills"
				add_ownership={
					building={
						type="building_financial_district"
						country="c:L01"
						levels=2
						region="STATE_LOWER_SORROW"
					}
				}
			}
			create_building={
				building="building_government_administration"
				add_ownership={
					country={
						country="c:L01"
						levels=5
					}
				}
				activate_production_methods={ "pm_simple_organization" }
			}
		}
	}

	s:STATE_KHETERAT={
		region_state:L01={
			create_building={
				building="building_wheat_farm"
				add_ownership={
					building={
						type="building_manor_house"
						country="c:L01"
						levels=16
						region="STATE_KHETERAT"
					}
				}
				activate_production_methods={ "pm_herb_gardens" }
			}
			create_building={
				building="building_livestock_ranch"
				add_ownership={
					building={
						type="building_manor_house"
						country="c:L01"
						levels=5
						region="STATE_KHETERAT"
					}
				}
			}
			create_building={
				building="building_silk_plantation"
				add_ownership={
					building={
						type="building_manor_house"
						country="c:L01"
						levels=3
						region="STATE_KHETERAT"
					}
				}
			}
			create_building={
				building="building_tobacco_plantation"
				add_ownership={
					building={
						type="building_manor_house"
						country="c:L01"
						levels=7
						region="STATE_KHETERAT"
					}
				}
			}
			create_building={
				building="building_logging_camp"
				add_ownership={
					building={
						type="building_logging_camp"
						country="c:L01"
						levels=2
						region="STATE_KHETERAT"
					}
				}
				activate_production_methods={ "pm_saw_mills" }
			}
			create_building={
				building="building_textile_mills"
				add_ownership={
					building={
						type="building_financial_district"
						country="c:L01"
						levels=3
						region="STATE_KHETERAT"
					}
					building={
						type="building_textile_mills"
						country="c:L01"
						levels=1
						region="STATE_KHETERAT"
					}
				}
				activate_production_methods={ "pm_craftsman_sewing" }
			}
			create_building = {
				building = "building_artillery_foundries"
				add_ownership={
					building={
						type="building_artillery_foundries"
						country="c:L01"
						levels=1
						region="STATE_KHETERAT"
					}
				}
			}
			create_building={
				building="building_government_administration"
				add_ownership={
					country={
						country="c:L01"
						levels=14
					}
				}
				activate_production_methods={ "pm_horizontal_drawer_cabinets" }
			}
			create_building={
				building="building_university"
				add_ownership={
					country={
						country="c:L01"
						levels=1
					}
				}
			}
			create_building={
				building="building_arts_academy"
				add_ownership={
					building={
						type="building_manor_house"
						country="c:L01"
						levels=1
						region="STATE_KHETERAT"
					}
				}
			}
			create_building={
				building="building_construction_sector"
				add_ownership={
					country={
						country="c:L01"
						levels=2
					}
				}
				activate_production_methods={ "pm_wooden_buildings" }
			}
		}
	}





	s:STATE_IBTAT={
		region_state:L01={
			create_building={
				building="building_wheat_farm"
				add_ownership={
					building={
						type="building_manor_house"
						country="c:L01"
						levels=3
						region="STATE_IBTAT"
					}
				}
				activate_production_methods={ "pm_herb_gardens" }
			}
			create_building={
				building="building_tea_plantation"
				add_ownership={
					building={
						type="building_manor_house"
						country="c:L01"
						levels=6
						region="STATE_IBTAT"
					}
				}
			}
			create_building={
				building="building_fishing_wharf"
				add_ownership={
					building={
						type="building_fishing_wharf"
						country="c:L01"
						levels=2
						region="STATE_IBTAT"
					}
				}
				activate_production_methods={ "pm_fishing_trawlers" }
			}
			create_building={
				building="building_shipyards"
				add_ownership={
					building={
						type="building_shipyards"
						country="c:L01"
						levels=1
						region="STATE_IBTAT"
					}
				}
			}
			create_building={
				building="building_port"
				add_ownership={
					country={
						country="c:F02"
						levels=1
					}
				}
				activate_production_methods={ "pm_basic_port" }
			}
		}
		region_state:F02={
			create_building={
				building="building_wheat_farm"
				add_ownership={
					building={
						type="building_manor_house"
						country="c:F02"
						levels=2
						region="STATE_IBTAT"
					}
				}
			}
			create_building={
				building="building_tea_plantation"
				add_ownership={
					building={
						type="building_manor_house"
						country="c:F02"
						levels=5
						region="STATE_IBTAT"
					}
				}
			}
			create_building={
				building="building_port"
				add_ownership={
					country={
						country="c:F02"
						levels=1
					}
				}
				activate_production_methods={ "pm_basic_port" }
			}
		}
	}

	
	s:STATE_AWAASHESH={
		region_state:L01={
			create_building={
				building="building_livestock_ranch"
				add_ownership={
					building={
						type="building_manor_house"
						country="c:L01"
						levels=1
						region="STATE_AWAASHESH"
					}
				}
			}
			create_building={
				building="building_opium_plantation"
				add_ownership={
					building={
						type="building_manor_house"
						country="c:L01"
						levels=6
						region="STATE_AWAASHESH"
					}
				}
			}
			create_building = {
				building = "building_iron_mine"
				add_ownership={
					building={
						type="building_iron_mine"
						country="c:L01"
						levels=2
						region="STATE_AWAASHESH"
					}
				}
			}
			create_building={
				building="building_construction_sector"
				add_ownership={
					country={
						country="c:L01"
						levels=1
					}
				}
				activate_production_methods={ "pm_iron_frame_buildings" }
			}
		}
	}

	s:STATE_SHASOURA={
		region_state:L01={
			create_building={
				building="building_wheat_farm"
				add_ownership={
					building={
						type="building_manor_house"
						country="c:L01"
						levels=9
						region="STATE_SHASOURA"
					}
				}
				activate_production_methods={ "pm_herb_gardens" }
			}
			create_building={
				building="building_opium_plantation"
				add_ownership={
					building={
						type="building_manor_house"
						country="c:L01"
						levels=4
						region="STATE_SHASOURA"
					}
				}
			}
			create_building={
				building="building_fishing_wharf"
				add_ownership={
					building={
						type="building_fishing_wharf"
						country="c:L01"
						levels=2
						region="STATE_SHASOURA"
					}
				}
				activate_production_methods={ "pm_fishing_trawlers" }
			}
			create_building={
				building="building_logging_camp"
				add_ownership={
					building={
						type="building_logging_camp"
						country="c:L01"
						levels=4
						region="STATE_SHASOURA"
					}
				}
				activate_production_methods={ "pm_saw_mills" "pm_hardwood" }
			}
			create_building={
				building="building_furniture_manufacturies"
				add_ownership={
					building={
						type="building_financial_district"
						country="c:L01"
						levels=1
						region="STATE_SHASOURA"
					}
				}
				add_ownership={
					building={
						type="building_furniture_manufacturies"
						country="c:L01"
						levels=3
						region="STATE_SHASOURA"
					}
				}
				activate_production_methods={ "pm_no_luxuries" }
			}
			create_building={
				building="building_port"
				add_ownership={
					country={
						country="c:L01"
						levels=1
					}
				}
				activate_production_methods={ "pm_basic_port" }
			}
			create_building={
				building="building_government_administration"
				add_ownership={
					country={
						country="c:L01"
						levels=5
					}
				}
				activate_production_methods={ "pm_horizontal_drawer_cabinets" }
			}
		}
	}

	s:STATE_RASUSOPOT={
		region_state:L01={
			create_building={
				building="building_fishing_wharf"
				add_ownership={
					building={
						type="building_fishing_wharf"
						country="c:L01"
						levels=1
						region="STATE_RASUSOPOT"
					}
				}
				activate_production_methods={ "pm_fishing_trawlers" }
			}
			create_building={
				building="building_port"
				add_ownership={
					country={
						country="c:L01"
						levels=1
					}
				}
				activate_production_methods={ "pm_basic_port" }
			}
			create_building={
				building="building_government_administration"
				add_ownership={
					country={
						country="c:L01"
						levels=2
					}
				}
				activate_production_methods={ "pm_simple_organization" }
			}
		}
	}

	s:STATE_HOHKROGAR={
		region_state:L01={
			create_building={
				building="building_livestock_ranch"
				add_ownership={
					building={
						type="building_manor_house"
						country="c:L01"
						levels=3
						region="STATE_HOHKROGAR"
					}
				}
			}
		}
	}

	
	s:STATE_UPPER_SORROW={
		region_state:L01={
			create_building={
				building="building_wheat_farm"
				add_ownership={
					building={
						type="building_manor_house"
						country="c:L01"
						levels=6
						region="STATE_UPPER_SORROW"
					}
				}
				activate_production_methods={ "pm_no_secondary" }
			}
			create_building={
				building="building_livestock_ranch"
				add_ownership={
					building={
						type="building_manor_house"
						country="c:L01"
						levels=3
						region="STATE_UPPER_SORROW"
					}
				}
			}
			create_building={
				building="building_logging_camp"
				add_ownership={
					building={
						type="building_logging_camp"
						country="c:L01"
						levels=2
						region="STATE_UPPER_SORROW"
					}
				}
				activate_production_methods={ "pm_saw_mills" }
			}
			create_building={
				building="building_furniture_manufacturies"
				add_ownership={
					building={
						type="building_financial_district"
						country="c:L01"
						levels=2
						region="STATE_UPPER_SORROW"
					}
				}
				add_ownership={
					building={
						type="building_furniture_manufacturies"
						country="c:L01"
						levels=2
						region="STATE_UPPER_SORROW"
					}
				}
				activate_production_methods={ "pm_luxury_furniture" }
			}
		}
	}


	s:STATE_GOLKORA={
		region_state:L01={
			create_building={
				building="building_wheat_farm"
				add_ownership={
					building={
						type="building_manor_house"
						country="c:L01"
						levels=4
						region="STATE_GOLKORA"
					}
				}
				activate_production_methods={ "pm_no_secondary" }
			}
			create_building={
				building="building_livestock_ranch"
				add_ownership={
					building={
						type="building_manor_house"
						country="c:L01"
						levels=5
						region="STATE_GOLKORA"
					}
				}
			}
			create_building={
				building="building_logging_camp"
				add_ownership={
					building={
						type="building_logging_camp"
						country="c:L01"
						levels=2
						region="STATE_GOLKORA"
					}
				}
				activate_production_methods={ "pm_saw_mills" }
			}
			create_building={
				building="building_tooling_workshops"
				add_ownership={
					building={
						type="building_tooling_workshops"
						country="c:L01"
						levels=4
						region="STATE_GOLKORA"
					}
				}
				activate_production_methods={ "pm_crude_tools" }
			}
			create_building={
				building="building_gold_mine"
				add_ownership={
					building={
						type="building_gold_mine"
						country="c:L01"
						levels=4
						region="STATE_GOLKORA"
					}
				}
			}
			create_building={
				building="building_government_administration"
				add_ownership={
					country={
						country="c:L01"
						levels=6
					}
				}
				activate_production_methods={ "pm_simple_organization" }
			}
			create_building={
				building="building_construction_sector"
				add_ownership={
					country={
						country="c:L01"
						levels=1
					}
				}
				activate_production_methods={ "pm_wooden_buildings" }
			}
		}
	}

	s:STATE_IRSMAHAP={
		region_state:L01={
			create_building={
				building="building_millet_farm"
				add_ownership={
					building={
						type="building_manor_house"
						country="c:L01"
						levels=7
						region="STATE_IRSMAHAP"
					}
				}
				activate_production_methods={ "pm_no_secondary" }
			}
			create_building={
				building="building_livestock_ranch"
				add_ownership={
					building={
						type="building_manor_house"
						country="c:L01"
						levels=2
						region="STATE_IRSMAHAP"
					}
				}
			}
			create_building={
				building="building_logging_camp"
				add_ownership={
					building={
						type="building_logging_camp"
						country="c:L01"
						levels=1
						region="STATE_IRSMAHAP"
					}
				}
				activate_production_methods={ "pm_saw_mills" }
			}
			create_building={
				building="building_textile_mills"
				add_ownership={
					building={
						type="building_textile_mills"
						country="c:L01"
						levels=8
						region="STATE_IRSMAHAP"
					}
				}
			}
			create_building={
				building="building_paper_mills"
				add_ownership={
					building={
						type="building_paper_mills"
						country="c:L01"
						levels=3
						region="STATE_IRSMAHAP"
					}
				}
			}
			create_building={
				building="building_government_administration"
				add_ownership={
					country={
						country="c:L01"
						levels=3
					}
				}
				activate_production_methods={ "pm_simple_organization" }
			}
			create_building={
				building="building_construction_sector"
				add_ownership={
					country={
						country="c:L01"
						levels=1
					}
				}
				activate_production_methods={ "pm_iron_frame_buildings" }
			}
		}
	}

	s:STATE_HAPGESH={
		region_state:L01={
			create_building={
				building="building_millet_farm"
				add_ownership={
					building={
						type="building_manor_house"
						country="c:L01"
						levels=6
						region="STATE_HAPGESH"
					}
				}
				activate_production_methods={ "pm_herb_gardens" }
			}
			create_building={
				building="building_livestock_ranch"
				add_ownership={
					building={
						type="building_manor_house"
						country="c:L01"
						levels=3
						region="STATE_HAPGESH"
					}
				}
			}
			create_building={
				building="building_tobacco_plantation"
				add_ownership={
					building={
						type="building_manor_house"
						country="c:L01"
						levels=4
						region="STATE_HAPGESH"
					}
				}
			}
			create_building = {
				building = "building_iron_mine"
				add_ownership={
					building={
						type="building_iron_mine"
						country="c:L01"
						levels=1
						region="STATE_HAPGESH"
					}
				}
			}
			create_building={
				building="building_government_administration"
				add_ownership={
					country={
						country="c:L01"
						levels=2
					}
				}
				activate_production_methods={ "pm_simple_organization" }
			}
		}
	}

	s:STATE_NIRAMIT={
		region_state:L01={
			create_building={
				building="building_millet_farm"
				add_ownership={
					building={
						type="building_manor_house"
						country="c:L01"
						levels=12
						region="STATE_NIRAMIT"
					}
				}
				activate_production_methods={ "pm_herb_gardens" }
			}
			create_building={
				building="building_livestock_ranch"
				add_ownership={
					building={
						type="building_manor_house"
						country="c:L01"
						levels=1
						region="STATE_NIRAMIT"
					}
				}
			}
			create_building={
				building="building_cotton_plantation"
				add_ownership={
					building={
						type="building_manor_house"
						country="c:L01"
						levels=4
						region="STATE_NIRAMIT"
					}
				}
			}
			create_building={
				building="building_textile_mills"
				add_ownership={
					building={
						type="building_textile_mills"
						country="c:L01"
						levels=3
						region="STATE_NIRAMIT"
					}
				}
			}
			create_building={
				building="building_government_administration"
				add_ownership={
					country={
						country="c:L01"
						levels=4
					}
				}
				activate_production_methods={ "pm_horizontal_drawer_cabinets" }
			}
		}
	}


	s:STATE_WESTERN_SALAHAD={
		region_state:L13={
			create_building = {
				building = "building_iron_mine"
				add_ownership={
					building={
						type="building_iron_mine"
						country="c:L13"
						levels=1
						region="STATE_WESTERN_SALAHAD"
					}
				}
			}
		}
	}




	
	#################
	####Gazraak####
	#################


	s:STATE_DUWARKANI={
		region_state:L17={
			create_building={
				building="building_millet_farm"
				add_ownership={
					building={
						type="building_manor_house"
						country="c:L17"
						levels=8
						region="STATE_DUWARKANI"
					}
				}
				activate_production_methods={ "pm_herb_gardens" }
			}
			create_building={
				building="building_livestock_ranch"
				add_ownership={
					building={
						type="building_manor_house"
						country="c:L17"
						levels=3
						region="STATE_DUWARKANI"
					}
				}
			}
			create_building={
				building="building_textile_mills"
				add_ownership={
					building={
						type="building_textile_mills"
						country="c:L17"
						levels=3
						region="STATE_DUWARKANI"
					}
				}
			}
			create_building={
				building="building_government_administration"
				add_ownership={
					country={
						country="c:L17"
						levels=2
					}
				}
				activate_production_methods={ "pm_simple_organization" }
			}
		}
	}







	#################
	####Akasik####
	#################

	s:STATE_DESHAK={
		region_state:A09={
			create_building={
				building="building_port"
				add_ownership={
					country={
						country="c:A09"
						levels=1
					}
				}
				activate_production_methods={ "pm_anchorage" }
			}
		}

		region_state:L03={
			create_building={
				building="building_wheat_farm"
				add_ownership={
					building={
						type="building_manor_house"
						country="c:L03"
						levels=2
						region="STATE_DESHAK"
					}
				}
				activate_production_methods={ "pm_no_secondary" }
			}
			create_building={
				building="building_livestock_ranch"
				add_ownership={
					building={
						type="building_manor_house"
						country="c:L03"
						levels=4
						region="STATE_DESHAK"
					}
				}
			}
			create_building={
				building="building_fishing_wharf"
				add_ownership={
					building={
						type="building_fishing_wharf"
						country="c:L03"
						levels=1
						region="STATE_DESHAK"
					}
				}
				activate_production_methods={ "pm_simple_fishing" }
			}
			create_building={
				building="building_construction_sector"
				add_ownership={
					country={
						country="c:L03"
						levels=1
					}
				}
				activate_production_methods={ "pm_wooden_buildings" }
			}
		}
	}


	s:STATE_EKHA={
		region_state:A09={
			create_building={
				building="building_port"
				add_ownership={
					country={
						country="c:A09"
						levels=1
					}
				}
				activate_production_methods={ "pm_anchorage" }
			}
		}
	}

	s:STATE_WANDERERS_ISLES={
		region_state:A03={
			create_building={
				building="building_port"
				add_ownership={
					country={
						country="c:A03"
						levels=1
					}
				}
				activate_production_methods={ "pm_anchorage" }
			}
		}
		region_state:A09={
			create_building={
				building="building_port"
				add_ownership={
					country={
						country="c:A09"
						levels=1
					}
				}
				activate_production_methods={ "pm_anchorage" }
			}
		}
	}





	#################
	####Horashesh####
	#################

	
	s:STATE_IMIDKIS={
		region_state:L17={
			create_building={
				building="building_millet_farm"
				add_ownership={
					building={
						type="building_manor_house"
						country="c:L17"
						levels=5
						region="STATE_IMIDKIS"
					}
				}
				activate_production_methods={ "pm_no_secondary" }
			}
			create_building={
				building="building_logging_camp"
				add_ownership={
					building={
						type="building_logging_camp"
						country="c:L17"
						levels=2
						region="STATE_IMIDKIS"
					}
				}
				activate_production_methods={ "pm_saw_mills" "pm_no_hardwood" }
			}
			create_building={
				building="building_tooling_workshops"
				add_ownership={
					building={
						type="building_tooling_workshops"
						country="c:L17"
						levels=1
						region="STATE_IMIDKIS"
					}
				}
				activate_production_methods={ "pm_pig_iron" }
			}
			create_building={
				building="building_government_administration"
				add_ownership={
					country={
						country="c:L17"
						levels=4
					}
				}
				activate_production_methods={ "pm_simple_organization" }
			}
			create_building={
				building="building_construction_sector"
				add_ownership={
					country={
						country="c:L17"
						levels=1
					}
				}
				activate_production_methods={ "pm_wooden_buildings" }
			}
		}
	}

	s:STATE_MUKIS={
		region_state:L17={
			create_building={
				building="building_millet_farm"
				add_ownership={
					building={
						type="building_manor_house"
						country="c:L17"
						levels=7
						region="STATE_MUKIS"
					}
				}
				activate_production_methods={ "pm_no_secondary" }
			}
			create_building={
				building="building_vineyard_plantation"
				add_ownership={
					building={
						type="building_manor_house"
						country="c:L17"
						levels=3
						region="STATE_MUKIS"
					}
				}
			}
			create_building={
				building="building_logging_camp"
				add_ownership={
					building={
						type="building_logging_camp"
						country="c:L17"
						levels=2
						region="STATE_MUKIS"
					}
				}
				activate_production_methods={ "pm_saw_mills" "pm_increased_hardwood" }
			}
			create_building = {
				building = "building_iron_mine"
				add_ownership={
					building={
						type="building_iron_mine"
						country="c:L17"
						levels=2
						region="STATE_MUKIS"
					}
				}
			}
			create_building = {
				building = "building_gold_mine"
				add_ownership={
					building={
						type="building_gold_mine"
						country="c:L17"
						levels=2
						region="STATE_MUKIS"
					}
				}
			}
			create_building={
				building="building_arms_industry"
				add_ownership={
					country={
						country="c:L17"
						levels=3
					}
				}
			}
			create_building = {
				building = "building_artillery_foundries"
				add_ownership={
					country={
						country="c:L17"
						levels=1
					}
				}
			}
			create_building={
				building="building_government_administration"
				add_ownership={
					country={
						country="c:L17"
						levels=2
					}
				}
				activate_production_methods={ "pm_simple_organization" }
			}
			create_building={
				building="building_construction_sector"
				add_ownership={
					country={
						country="c:L17"
						levels=1
					}
				}
				activate_production_methods={ "pm_wooden_buildings" }
			}
		}
	}

	s:STATE_MUZINGRAZI={
		region_state:L17={
			create_building={
				building="building_millet_farm"
				add_ownership={
					building={
						type="building_manor_house"
						country="c:L17"
						levels=10
						region="STATE_MUZINGRAZI"
					}
				}
				activate_production_methods={ "pm_no_secondary" }
			}
			create_building={
				building="building_livestock_ranch"
				add_ownership={
					building={
						type="building_manor_house"
						country="c:L17"
						levels=2
						region="STATE_MUZINGRAZI"
					}
				}
			}
			create_building={
				building="building_coffee_plantation"
				add_ownership={
					building={
						type="building_manor_house"
						country="c:L17"
						levels=2
						region="STATE_MUZINGRAZI"
					}
				}
			}
			create_building={
				building="building_government_administration"
				add_ownership={
					country={
						country="c:L17"
						levels=1
					}
				}
				activate_production_methods={ "pm_simple_organization" }
			}
		}
	}

	s:STATE_SAQRAXAT={
		region_state:L21={
			create_building={
				building="building_millet_farm"
				add_ownership={
					building={
						type="building_manor_house"
						country="c:L21"
						levels=4
						region="STATE_SAQRAXAT"
					}
				}
				activate_production_methods={ "pm_no_secondary" }
			}
			create_building={
				building="building_livestock_ranch"
				add_ownership={
					building={
						type="building_manor_house"
						country="c:L21"
						levels=3
						region="STATE_SAQRAXAT"
					}
				}
			}
			create_building={
				building="building_tobacco_plantation"
				add_ownership={
					building={
						type="building_manor_house"
						country="c:L21"
						levels=2
						region="STATE_SAQRAXAT"
					}
				}
			}
			create_building={
				building="building_government_administration"
				add_ownership={
					country={
						country="c:L21"
						levels=1
					}
				}
				activate_production_methods={ "pm_simple_organization" }
			}
		}
	}

	s:STATE_IRSUKSHESH={
		region_state:L21={
			create_building={
				building="building_millet_farm"
				add_ownership={
					building={
						type="building_manor_house"
						country="c:L21"
						levels=6
						region="STATE_IRSUKSHESH"
					}
				}
				activate_production_methods={ "pm_no_secondary" }
			}
			create_building={
				building="building_livestock_ranch"
				add_ownership={
					building={
						type="building_manor_house"
						country="c:L21"
						levels=1
						region="STATE_IRSUKSHESH"
					}
				}
			}
			create_building={
				building="building_logging_camp"
				add_ownership={
					building={
						type="building_logging_camp"
						country="c:L21"
						levels=4
						region="STATE_IRSUKSHESH"
					}
				}
				activate_production_methods={ "pm_simple_forestry" "pm_no_hardwood" }
			}
			create_building={
				building="building_furniture_manufacturies"
				add_ownership={
					building={
						type="building_furniture_manufacturies"
						country="c:L21"
						levels=2
						region="STATE_IRSUKSHESH"
					}
				}
				activate_production_methods={ "pm_no_luxuries" }
			}
			create_building={
				building="building_government_administration"
				add_ownership={
					country={
						country="c:L21"
						levels=2
					}
				}
				activate_production_methods={ "pm_simple_organization" }
			}
		}
	}


	s:STATE_KHAWIT={
		region_state:L21={
			create_building={
				building="building_millet_farm"
				add_ownership={
					building={
						type="building_manor_house"
						country="c:L21"
						levels=3
						region="STATE_KHAWIT"
					}
				}
				activate_production_methods={ "pm_no_secondary" }
			}
			create_building={
				building="building_banana_plantation"
				add_ownership={
					building={
						type="building_manor_house"
						country="c:L21"
						levels=2
						region="STATE_KHAWIT"
					}
				}
			}
			create_building={
				building="building_cotton_plantation"
				add_ownership={
					building={
						type="building_manor_house"
						country="c:L21"
						levels=4
						region="STATE_KHAWIT"
					}
				}
			}
			create_building={
				building="building_logging_camp"
				add_ownership={
					building={
						type="building_logging_camp"
						country="c:L21"
						levels=3
						region="STATE_KHAWIT"
					}
				}
				activate_production_methods={ "pm_simple_forestry" "pm_no_hardwood" }
			}
			create_building={
				building="building_construction_sector"
				add_ownership={
					country={
						country="c:L21"
						levels=2
					}
				}
				activate_production_methods={ "pm_wooden_buildings" }
			}
		}
	}


	
	


	s:STATE_ZUVAVIM={
		region_state:L23={
			create_building={
				building="building_port"
				add_ownership={
					country={
						country="c:L23"
						levels=1
					}
				}
				activate_production_methods={ "pm_anchorage" }
			}
		}
	}






	#################
	####Fangaula####
	#################

	s:STATE_GARPIX_GOXMA={
		region_state:L13={
			create_building={
				building="building_millet_farm"
				add_ownership={
					building={
						type="building_manor_house"
						country="c:L13"
						levels=7
						region="STATE_GARPIX_GOXMA"
					}
				}
				activate_production_methods={ "pm_herb_gardens" }
			}
			create_building={
				building="building_tobacco_plantation"
				add_ownership={
					building={
						type="building_manor_house"
						country="c:L13"
						levels=2
						region="STATE_GARPIX_GOXMA"
					}
				}
			}
			create_building={
				building="building_banana_plantation"
				add_ownership={
					building={
						type="building_manor_house"
						country="c:L13"
						levels=1
						region="STATE_GARPIX_GOXMA"
					}
				}
			}
			create_building={
				building="building_logging_camp"
				add_ownership={
					building={
						type="building_logging_camp"
						country="c:L13"
						levels=1
						region="STATE_GARPIX_GOXMA"
					}
				}
				activate_production_methods={ "pm_simple_forestry" "pm_no_hardwood" }
			}
		}
	}

	s:STATE_ZIKAAZ={
		region_state:L13={
			create_building={
				building="building_millet_farm"
				add_ownership={
					building={
						type="building_manor_house"
						country="c:L13"
						levels=2
						region="STATE_ZIKAAZ"
					}
				}
				activate_production_methods={ "pm_no_secondary" }
			}
			create_building={
				building="building_livestock_ranch"
				add_ownership={
					building={
						type="building_manor_house"
						country="c:L13"
						levels=6
						region="STATE_ZIKAAZ"
					}
				}
			}
			create_building={
				building="building_logging_camp"
				add_ownership={
					building={
						type="building_logging_camp"
						country="c:L13"
						levels=1
						region="STATE_ZIKAAZ"
					}
				}
				activate_production_methods={ "pm_simple_forestry" "pm_hardwood" }
			}
			create_building = {
				building = "building_artillery_foundries"
				add_ownership={
					country={
						country="c:L13"
						levels=1
					}
				}
			}
		}
	}


	s:STATE_FANGHASBA={
		region_state:L13={
			create_building={
				building="building_livestock_ranch"
				add_ownership={
					building={
						type="building_manor_house"
						country="c:L13"
						levels=3
						region="STATE_FANGHASBA"
					}
				}
			}
			create_building={
				building="building_logging_camp"
				add_ownership={
					building={
						type="building_logging_camp"
						country="c:L13"
						levels=2
						region="STATE_FANGHASBA"
					}
				}
				activate_production_methods={ "pm_simple_forestry" "pm_no_hardwood" }
			}
			create_building={
				building="building_tooling_workshops"
				add_ownership={
					building={
						type="building_tooling_workshops"
						country="c:L13"
						levels=1
						region="STATE_FANGHASBA"
					}
				}
				activate_production_methods={ "pm_crude_tools" }
			}
			create_building={
				building="building_construction_sector"
				add_ownership={
					country={
						country="c:L13"
						levels=1
					}
				}
				activate_production_methods={ "pm_wooden_buildings" }
			}
			create_building={
				building="building_government_administration"
				add_ownership={
					country={
						country="c:L13"
						levels=2
					}
				}
				activate_production_methods={ "pm_simple_organization" }
			}
		}
	}




	s:STATE_ZANGALAND={
		region_state:A09={
			create_building={
				building="building_port"
				add_ownership={
					country={
						country="c:A09"
						levels=1
					}
				}
				activate_production_methods={ "pm_anchorage" }
			}
		}
	}

	s:STATE_MARID_DELTA={
		region_state:L61={
			create_building={
				building="building_port"
				add_ownership={
					country={
						country="c:L61"
						levels=1
					}
				}
				activate_production_methods={ "pm_anchorage" }
			}
		}
	}

	s:STATE_KUNOLO={
		region_state:A03={
			create_building={
				building="building_port"
				add_ownership={
					country={
						country="c:A03"
						levels=1
					}
				}
				activate_production_methods={ "pm_anchorage" }
			}
		}
	}

	s:STATE_GEMTREE={
		region_state:A03={
			create_building={
				building="building_port"
				add_ownership={
					country={
						country="c:A03"
						levels=1
					}
				}
				activate_production_methods={ "pm_anchorage" }
			}
		}
		region_state:A04={
			create_building={
				building="building_port"
				add_ownership={
					country={
						country="c:A04"
						levels=1
					}
				}
				activate_production_methods={ "pm_anchorage" }
			}
		}
	}


	s:STATE_ASANBOSAM_TU={
		region_state:A01={
			create_building={
				building="building_port"
				add_ownership={
					country={
						country="c:A01"
						levels=1
					}
				}
				activate_production_methods={ "pm_anchorage" }
			}
		}
		region_state:A07={
			create_building={
				building="building_port"
				add_ownership={
					country={
						country="c:A07"
						levels=1
					}
				}
				activate_production_methods={ "pm_anchorage" }
			}
		}
	}

	#################
	####Fahvanosy####
	#################

	s:STATE_AFOMAPOBO={
		region_state:L61={
			create_building={
				building="building_port"
				add_ownership={
					country={
						country="c:L61"
						levels=1
					}
				}
				activate_production_methods={ "pm_anchorage" }
			}
		}
		region_state:L68={
			create_building={
				building="building_port"
				add_ownership={
					country={
						country="c:L68"
						levels=1
					}
				}
				activate_production_methods={ "pm_anchorage" }
			}
		}
	}

	s:STATE_NAFALOFIMAPO={
		region_state:L23={
			create_building={
				building="building_port"
				add_ownership={
					country={
						country="c:L23"
						levels=1
					}
				}
				activate_production_methods={ "pm_anchorage" }
			}
		}
	}

	s:STATE_SIL_BERKHENS_LAND={
		region_state:A09={
			create_building={
				building="building_port"
				add_ownership={
					country={
						country="c:A09"
						levels=1
					}
				}
				activate_production_methods={ "pm_anchorage" }
			}
		}
	}



	#################
	####Taneyas####
	#################
	
	s:STATE_ZULBUR={
		region_state:L34={
			create_building={
				building="building_port"
				add_ownership={
					country={
						country="c:L34"
						levels=1
					}
				}
				activate_production_methods={ "pm_anchorage" }
			}
		}
	}


	#################
	####Bamyashba####
	#################


	s:STATE_UMUPKA={
		region_state:L32={
			create_building={
				building="building_port"
				add_ownership={
					country={
						country="c:L32"
						levels=1
					}
				}
				activate_production_methods={ "pm_anchorage" }
			}
		}
	}

	s:STATE_KOMBEDHULA={
		region_state:L34={
			create_building={
				building="building_port"
				add_ownership={
					country={
						country="c:L34"
						levels=1
					}
				}
				activate_production_methods={ "pm_anchorage" }
			}
		}
	}

	s:STATE_MASHREMBTA={
		region_state:L32={
			create_building={
				building="building_port"
				add_ownership={
					country={
						country="c:L32"
						levels=1
					}
				}
				activate_production_methods={ "pm_anchorage" }
			}
		}
	}

	s:STATE_MVUALIMA={
		region_state:A04={
			create_building={
				building="building_port"
				add_ownership={
					country={
						country="c:A04"
						levels=1
					}
				}
				activate_production_methods={ "pm_anchorage" }
			}
		}
	}


	#################
	####Madriamillak####
	#################

	s:STATE_FOG_ISLES={
		region_state:A03={
			create_building={
				building="building_port"
				add_ownership={
					country={
						country="c:A03"
						levels=1
					}
				}
				activate_production_methods={ "pm_anchorage" }
			}
		}
		region_state:L32={
			create_building={
				building="building_port"
				add_ownership={
					country={
						country="c:L32"
						levels=1
					}
				}
				activate_production_methods={ "pm_anchorage" }
			}
		}
	}



	#################
	####Jasir Jadiid####
	#################

	
	s:STATE_BEERAGGA={
		region_state:L32={
			create_building={
				building="building_port"
				add_ownership={
					country={
						country="c:L32"
						levels=1
					}
				}
				activate_production_methods={ "pm_anchorage" }
			}
		}
	}


	#################
	####Ardimya####
	#################

	

	s:STATE_OHITS={
		region_state:A09={
			create_building={
				building="building_port"
				add_ownership={
					country={
						country="c:A09"
						levels=1
					}
				}
				activate_production_methods={ "pm_anchorage" }
			}
		}
	}

	s:STATE_NORTHERN_DIVIDE={
		region_state:A09={
			create_building={
				building="building_port"
				add_ownership={
					country={
						country="c:A09"
						levels=1
					}
				}
				activate_production_methods={ "pm_anchorage" }
			}
		}
	}

	

	s:STATE_TAGTO_PENNINSULA={
		region_state:A03={
			create_building={
				building="building_port"
				add_ownership={
					country={
						country="c:A03"
						levels=1
					}
				}
				activate_production_methods={ "pm_anchorage" }
			}
		}
	}

	s:STATE_VISAGE_ISLES={
		region_state:A03={
			create_building={
				building="building_port"
				add_ownership={
					country={
						country="c:A03"
						levels=1
					}
				}
				activate_production_methods={ "pm_anchorage" }
			}
		}
	}

	s:STATE_CRESCENT_LINE={
		region_state:A06={
			create_building={
				building="building_port"
				add_ownership={
					country={
						country="c:A06"
						levels=1
					}
				}
				activate_production_methods={ "pm_anchorage" }
			}
		}
		region_state:L32={
			create_building={
				building="building_port"
				add_ownership={
					country={
						country="c:L32"
						levels=1
					}
				}
				activate_production_methods={ "pm_anchorage" }
			}
		}
	}


}