dna_elissa_lithiel={
	portrait_info = {
		genes={ 		
			hair_color={ 0 0 0 0 }
			skin_color={ 195 243 195 243 }
			eye_color={ 237 105 237 105 }
			gene_cheek_fat={ "cheek_fat" 77 "cheek_fat" 98 }
			gene_cheek_forward={ "cheek_forward" 137 "cheek_forward" 149 }
			gene_cheek_height={ "cheek_height" 252 "cheek_height" 252 }
			gene_cheek_prom={ "cheek_prom" 168 "cheek_prom" 154 }
			gene_cheek_width={ "cheek_width" 140 "cheek_width" 140 }
			gene_chin_forward={ "chin_forward" 107 "chin_forward" 138 }
			gene_chin_height={ "chin_height" 131 "chin_height" 138 }
			gene_chin_width={ "chin_width" 127 "chin_width" 26 }
			gene_ear_angle={ "ear_angle" 121 "ear_angle" 121 }
			gene_ear_inner_shape={ "ear_inner_shape" 102 "ear_inner_shape" 102 }
			gene_ear_lower_bend={ "ear_lower_bend" 52 "ear_lower_bend" 52 }
			gene_ear_out={ "ear_out" 140 "ear_out" 140 }
			gene_ear_size={ "ear_size" 114 "ear_size" 114 }
			gene_ear_upper_bend={ "ear_upper_bend" 158 "ear_upper_bend" 158 }
			gene_eye_angle={ "eye_angle" 138 "eye_angle" 138 }
			gene_eye_depth={ "eye_depth" 167 "eye_depth" 167 }
			gene_eye_distance={ "eye_distance" 139 "eye_distance" 139 }
			gene_eye_height={ "eye_height" 92 "eye_height" 92 }
			gene_eye_shut={ "eye_shut" 14 "eye_shut" 151 }
			gene_eye_corner_def={ "eye_corner_def" 135 "eye_corner_def" 135 }
			gene_eye_corner_depth_min={ "eye_corner_depth_min" 116 "eye_corner_depth_min" 116 }
			gene_eye_fold_droop={ "eye_fold_droop" 113 "eye_fold_droop" 133 }
			gene_eye_fold_shape={ "eye_fold_shape" 128 "eye_fold_shape" 128 }
			gene_eye_size={ "eye_size" 122 "eye_size" 140 }
			gene_eye_upper_lid_size={ "eye_upper_lid_size" 76 "eye_upper_lid_size" 76 }
			gene_forehead_angle={ "forehead_angle" 125 "forehead_angle" 125 }
			gene_forehead_brow_curve={ "forehead_brow_curve" 140 "forehead_brow_curve" 140 }
			gene_forehead_brow_forward={ "forehead_brow_forward" 86 "forehead_brow_forward" 86 }
			gene_forehead_brow_height={ "forehead_brow_height" 175 "forehead_brow_height" 175 }
			gene_forehead_brow_inner_height={ "forehead_brow_inner_height" 124 "forehead_brow_inner_height" 124 }
			gene_forehead_brow_outer_height={ "forehead_brow_outer_height" 166 "forehead_brow_outer_height" 166 }
			gene_forehead_brow_width={ "forehead_brow_width" 139 "forehead_brow_width" 139 }
			gene_forehead_height={ "forehead_height" 137 "forehead_height" 137 }
			gene_forehead_roundness={ "forehead_roundness" 135 "forehead_roundness" 135 }
			gene_forehead_width={ "forehead_width" 185 "forehead_width" 185 }
			gene_head_height={ "head_height" 134 "head_height" 134 }
			gene_head_profile={ "head_profile" 120 "head_profile" 120 }
			gene_head_top_height={ "head_top_height" 139 "head_top_height" 139 }
			gene_head_top_width={ "head_top_width" 129 "head_top_width" 129 }
			gene_head_width={ "head_width" 118 "head_width" 118 }
			gene_jaw_angle={ "jaw_angle" 153 "jaw_angle" 153 }
			gene_jaw_def={ "jaw_def" 228 "jaw_def" 228 }
			gene_jaw_forward={ "jaw_forward" 127 "jaw_forward" 127 }
			gene_jaw_height={ "jaw_height" 146 "jaw_height" 146 }
			gene_jaw_width={ "jaw_width" 63 "jaw_width" 63 }
			gene_mouth_corner_height={ "mouth_corner_height" 103 "mouth_corner_height" 103 }
			gene_mouth_forward={ "mouth_forward" 159 "mouth_forward" 159 }
			gene_mouth_height={ "mouth_height" 123 "mouth_height" 123 }
			gene_mouth_lower_lip_def={ "mouth_lower_lip_def" 133 "mouth_lower_lip_def" 133 }
			gene_mouth_lower_lip_full={ "mouth_lower_lip_full" 51 "mouth_lower_lip_full" 51 }
			gene_mouth_lower_lip_pads={ "mouth_lower_lip_pads" 84 "mouth_lower_lip_pads" 84 }
			gene_mouth_lower_lip_size={ "mouth_lower_lip_size" 135 "mouth_lower_lip_size" 135 }
			gene_mouth_lower_lip_width={ "mouth_lower_lip_width" 126 "mouth_lower_lip_width" 126 }
			gene_mouth_open={ "mouth_open" 142 "mouth_open" 142 }
			gene_mouth_philtrum_curve={ "mouth_philtrum_curve" 132 "mouth_philtrum_curve" 132 }
			gene_mouth_philtrum_def={ "mouth_philtrum_def" 116 "mouth_philtrum_def" 116 }
			gene_mouth_philtrum_width={ "mouth_philtrum_width" 117 "mouth_philtrum_width" 117 }
			gene_mouth_upper_lip_curve={ "mouth_upper_lip_curve" 109 "mouth_upper_lip_curve" 109 }
			gene_mouth_upper_lip_def={ "mouth_upper_lip_def" 92 "mouth_upper_lip_def" 92 }
			gene_mouth_upper_lip_full={ "mouth_upper_lip_full" 132 "mouth_upper_lip_full" 132 }
			gene_mouth_upper_lip_width={ "mouth_upper_lip_width" 121 "mouth_upper_lip_width" 121 }
			gene_mouth_upper_lip_size={ "mouth_upper_lip_size" 137 "mouth_upper_lip_size" 137 }
			gene_mouth_width={ "mouth_width" 88 "mouth_width" 88 }
			gene_nose_curve={ "nose_curve" 114 "nose_curve" 114 }
			gene_nose_forward={ "nose_forward" 106 "nose_forward" 106 }
			gene_nose_hawk={ "nose_hawk" 98 "nose_hawk" 84 }
			gene_nose_height={ "nose_height" 59 "nose_height" 98 }
			gene_nose_length={ "nose_length" 146 "nose_length" 126 }
			gene_nose_nostril_angle={ "nose_nostril_angle" 139 "nose_nostril_angle" 139 }
			gene_nose_nostril_height={ "nose_nostril_height" 133 "nose_nostril_height" 133 }
			gene_nose_nostril_width={ "nose_nostril_width" 102 "nose_nostril_width" 102 }
			gene_nose_ridge_angle={ "nose_ridge_angle" 97 "nose_ridge_angle" 97 }
			gene_nose_ridge_def={ "nose_ridge_def" 139 "nose_ridge_def" 139 }
			gene_nose_ridge_def_min={ "nose_ridge_def_min" 120 "nose_ridge_def_min" 120 }
			gene_nose_ridge_width={ "nose_ridge_width" 112 "nose_ridge_width" 112 }
			gene_nose_size={ "nose_size" 100 "nose_size" 139 }
			gene_nose_tip_angle={ "nose_tip_angle" 139 "nose_tip_angle" 139 }
			gene_nose_tip_forward={ "nose_tip_forward" 135 "nose_tip_forward" 135 }
			gene_nose_tip_width={ "nose_tip_width" 146 "nose_tip_width" 146 }
			gene_neck_length={ "neck_length" 174 "neck_length" 174 }
			gene_neck_width={ "neck_width" 120 "neck_width" 120 }
			gene_bs_body_type={ "body_fat_head_fat_full_elf" 114 "body_fat_head_fat_full_elf" 114 }
			gene_height={ "normal_height" 121 "normal_height" 121 }
			gene_age={ "anb_elf_aging" 26 "anb_elf_aging" 26 }
			gene_old_ears={ "old_ears_elf" 0 "old_ears_elf" 0 }
			gene_old_eyes={ "old_eyes_elf" 16 "old_eyes_elf" 16 }
			gene_old_forehead={ "old_forehead_elf" 19 "old_forehead_elf" 19 }
			gene_old_mouth={ "old_mouth_elf" 4 "old_mouth_elf" 4 }
			gene_old_nose={ "old_nose_elf" 14 "old_nose_elf" 14 }
			gene_complexion={ "complexion_03" 0 "complexion_02" 0 }
			gene_stubble={ "stubble_low" 0 "stubble_low" 0 }
			gene_crowfeet={ "crowfeet_01" 0 "crowfeet_01" 0 }
			gene_face_dacals={ "face_dacal_05" 255 "face_dacal_05" 255 }
			gene_frown={ "frown_02" 8 "frown_02" 8 }
			gene_surprise={ "surprise_02" 20 "surprise_02" 20 }
			gene_eyebrows_shape={ "avg_spacing_high_thickness_elf" 250 "avg_spacing_high_thickness_elf" 250 }
			gene_eyebrows_fullness={ "layer_2_low_thickness_elf" 102 "layer_2_low_thickness_elf" 102 }
			hairstyles={ "elven_hairstyles" 0 "elven_hairstyles" 79 }
			beards={ "no_beard" 129 "no_beard" 129 }
			mustaches={ "no_mustache" 214 "no_mustache" 214 }
			props={ "no_prop" 0 "no_prop" 0 }
			eye_accessory={ "normal_eyes" 0 "normal_eyes" 0 }
			eye_lashes_accessory={ "normal_eyelashes" 0 "normal_eyelashes" 0 }
			teeth_accessory={ "normal_teeth" 0 "normal_teeth" 0 }
			POD_NOSschnoz={ "schnozies" 0 "schnozies" 0 }
			skin_color_override={ "default_1" 127 "default_1" 127 }
			race_gene_mer_ears_01={ "mer_ears_01" 243 "mer_ears_01" 243 }
			race_gene_mer_ears_02={ "mer_ears_02" 241 "mer_ears_02" 241 }
		}
	}
	enabled=yes
}